RNA-seq Analysis in R
…
sum(is.na(annot$ENTREZID)) # Why are there NAs in the ENTREZID column?

## [1] 94

dim(annot) # why are there more than 1000 rows?

## [1] 1018    3

# find all rows containing duplicated ensembl ids
annot %>%  
    add_count(GENEID) %>%  
    dplyr::filter(n>1)

## # A tibble: 34 x 4
##    SYMBOL   GENEID              ENTREZID     n
##    <chr>    <chr>                  <int> <int>
##  1 Trappc10 ENSMUSG00000000374    216131     2
##  2 Trappc10 ENSMUSG00000000374 102641872     2
##  3 Rpl13    ENSMUSG00000000740    270106     2
##  4 Rpl13    ENSMUSG00000000740 100040416     2
##  5 Chmp1a   ENSMUSG00000000743    234852     2
##  6 Chmp1a   ENSMUSG00000000743 102642050     2
##  7 Ndufa11  ENSMUSG00000002379     69875     2
##  8 Ndufa11  ENSMUSG00000002379    239760     2
##  9 Flii     ENSMUSG00000002812     14248     2
## 10 Flii     ENSMUSG00000002812 102642960     2
## #  with 24 more rows
…
